Coding togetheR
…
(#fig:dplyr-filter)(ref:filter)

# Filter observations that only occurred from 1985 onwards
 filter(surveys, year >= 1985)

## # A tibble: 25,290 x 13
##    record_id month   day  year plot_id species_id sex   hindfoot_length
##        <dbl> <dbl> <dbl> <dbl>   <dbl> <chr>      <chr>           <dbl>
##  1     10606     7    24  1985       2 NL         F                  30
##  2     10617     7    24  1985       2 NL         M                  32
##  3     10627     7    24  1985       2 NL         F                  32
##  4     10720     8    20  1985       2 NL         F                  31
##  5     10923    10    13  1985       2 NL         F                  31
##  6     10949    10    13  1985       2 NL         F                  33
##  7     11215    12     8  1985       2 NL         F                  32
##  8     11329     3     9  1986       2 NL         M                  34
##  9     11496     5    11  1986       2 NL         F                  31
## 10     11498     5    11  1986       2 NL         F                  31
## # ... with 25,280 more rows, and 5 more variables: weight <dbl>,
## #   genus <chr>, species <chr>, taxa <chr>, plot_type <chr>
…
(#fig:dplyr-arrange)(ref:arrange)

surveys %>% arrange(record_id)

## # A tibble: 34,786 x 13
##    record_id month   day  year plot_id species_id sex   hindfoot_length
##        <dbl> <dbl> <dbl> <dbl>   <dbl> <chr>      <chr>           <dbl>
##  1         1     7    16  1977       2 NL         M                  32
##  2         2     7    16  1977       3 NL         M                  33
##  3         3     7    16  1977       2 DM         F                  37
##  4         4     7    16  1977       7 DM         M                  36
##  5         5     7    16  1977       3 DM         M                  35
##  6         6     7    16  1977       1 PF         M                  14
##  7         7     7    16  1977       2 PE         F                  NA
##  8         8     7    16  1977       1 DM         M                  37
##  9         9     7    16  1977       1 DM         F                  34
## 10        10     7    16  1977       6 PF         F                  20
## # ... with 34,776 more rows, and 5 more variables: weight <dbl>,
## #   genus <chr>, species <chr>, taxa <chr>, plot_type <chr>

Or we could use arrange() to find the record with the shortest hindfoot.
Note: arrange() defaults to ascending order.

surveys %>% arrange(hindfoot_length)

## # A tibble: 34,786 x 13
##    record_id month   day  year plot_id species_id sex   hindfoot_length
##        <dbl> <dbl> <dbl> <dbl>   <dbl> <chr>      <chr>           <dbl>
##  1     31400     9    30  2000      19 PB         M                   2
##  2     10067     3    16  1985      19 RM         M                   6
##  3     19567     1     8  1992      19 BA         M                   6
##  4     19015     9     9  1991      19 BA         F                   7
##  5     21036     8    19  1993      21 PF         F                   7
##  6     31457     9    31  2000       6 RM         M                   8
##  7     19191    10    11  1991      13 PF         F                   8
##  8      5801     4    29  1982       7 RM         <NA>                8
##  9     33647     3    14  2002       3 PF         M                   9
## 10     20562    12    22  1992       5 RM         F                   9
## # ... with 34,776 more rows, and 5 more variables: weight <dbl>,
## #   genus <chr>, species <chr>, taxa <chr>, plot_type <chr>

To find the Cactus Mouse, (species_id == "PE") with the longest hindfoot we combine
filter() with arrangee() using the pipe:

Hint Use the desc() function to arrange from biggest to smallest.

surveys %>% 
        filter(species_id == "PE") %>% 
        arrange(desc(hindfoot_length))

## # A tibble: 1,299 x 13
##    record_id month   day  year plot_id species_id sex   hindfoot_length
##        <dbl> <dbl> <dbl> <dbl>   <dbl> <chr>      <chr>           <dbl>
##  1      1202     9     3  1978       7 PE         F                  30
##  2       517     1     8  1978       2 PE         M                  26
##  3     32443     8    25  2001      23 PE         F                  24
##  4      5080    12    30  1981      15 PE         F                  23
##  5      5090    12    30  1981      15 PE         F                  23
##  6     33700     3    14  2002       9 PE         F                  23
##  7       604     2    18  1978       2 PE         M                  22
##  8     12459     3     2  1987       2 PE         F                  22
##  9     13992     1    24  1988       2 PE         M                  22
## 10     14516     5    15  1988       2 PE         F                  22
## # ... with 1,289 more rows, and 5 more variables: weight <dbl>,
## #   genus <chr>, species <chr>, taxa <chr>, plot_type <chr>
…
(#fig:dplyr-select)(ref:select)

# Select the year and plot type columns
surveys %>% select(year,plot_type)

## # A tibble: 34,786 x 2
##     year plot_type
##    <dbl> <chr>    
##  1  1977 Control  
##  2  1977 Control  
##  3  1977 Control  
##  4  1977 Control  
##  5  1977 Control  
##  6  1977 Control  
##  7  1977 Control  
##  8  1978 Control  
##  9  1978 Control  
## 10  1978 Control  
## # ... with 34,776 more rows

We can also use negative selection by adding a minus sign - to variables we
wish to discard. Here we discard sex,hindfoot_length and weight from the
surveys_filtered object and keep everything else:

# Select everything except sex, hindfoot and weight
surveys_filtered %>% select(-sex,-hindfoot_length,-weight)

## # A tibble: 20,729 x 10
##    record_id month   day  year plot_id species_id genus species taxa 
##        <dbl> <dbl> <dbl> <dbl>   <dbl> <chr>      <chr> <chr>   <chr>
##  1         1     7    16  1977       2 NL         Neot~ albigu~ Rode~
##  2        72     8    19  1977       2 NL         Neot~ albigu~ Rode~
##  3       224     9    13  1977       2 NL         Neot~ albigu~ Rode~
##  4       266    10    16  1977       2 NL         Neot~ albigu~ Rode~
##  5       349    11    12  1977       2 NL         Neot~ albigu~ Rode~
##  6       363    11    12  1977       2 NL         Neot~ albigu~ Rode~
##  7       435    12    10  1977       2 NL         Neot~ albigu~ Rode~
##  8       506     1     8  1978       2 NL         Neot~ albigu~ Rode~
##  9       588     2    18  1978       2 NL         Neot~ albigu~ Rode~
## 10       661     3    11  1978       2 NL         Neot~ albigu~ Rode~
## # ... with 20,719 more rows, and 1 more variable: plot_type <chr>
…
# Check output using distinct()
surveys_mutated %>% select(species_id,rodent_type) %>% 
        distinct(species_id, .keep_all = T)

## # A tibble: 42 x 2
##    species_id rodent_type 
##    <chr>      <chr>       
##  1 NL         Other       
##  2 DM         Kangaroo Rat
##  3 PF         Granivore   
##  4 PE         Granivore   
##  5 DS         Kangaroo Rat
##  6 PP         Granivore   
##  7 SH         Other       
##  8 OT         Other       
##  9 DO         Kangaroo Rat
## 10 OX         Other       
## # ... with 32 more rows
…
(#fig:group-by)(ref:group-by)

Using group_by() with summarise() now returns a table with 92 rows instead of single row.

surveys %>%
  group_by(sex, species_id) %>%
  summarize(mean_weight = mean(weight, na.rm = TRUE))

## # A tibble: 92 x 3
## # Groups:   sex [3]
##    sex   species_id mean_weight
##    <chr> <chr>            <dbl>
##  1 F     BA                9.16
##  2 F     DM               41.6 
##  3 F     DO               48.5 
##  4 F     DS              118.  
##  5 F     NL              154.  
##  6 F     OL               31.1 
##  7 F     OT               24.8 
##  8 F     OX               21   
##  9 F     PB               30.2 
## 10 F     PE               22.8 
## # ... with 82 more rows
…
Then we can calculate the number of captures for each of these groups by
using summarise() to create a mean_captures variable which is equal to the number
of rows for that group using the n() function divided by 4 to calculate
the average over each quarter.

Note: n() is a dplyr function that returns the number of observations in the current group.

by_quarter <- surveys_subset %>% 
        group_by(rodent_type,plot_type,quarter) %>% 
        summarise(mean_captures = n()/4)

by_quarter

## # A tibble: 567 x 4
## # Groups:   rodent_type, plot_type [6]
##    rodent_type plot_type quarter mean_captures
##    <chr>       <chr>       <dbl>         <dbl>
##  1 Granivore   Control     1977.          3.75
##  2 Granivore   Control     1977.          2   
##  3 Granivore   Control     1978.          2.75
##  4 Granivore   Control     1978.          2.25
##  5 Granivore   Control     1978.          3.25
##  6 Granivore   Control     1978.          1   
##  7 Granivore   Control     1979.          1.25
##  8 Granivore   Control     1979.          1.5 
##  9 Granivore   Control     1979.          1.25
## 10 Granivore   Control     1980.          5.5 
## # ... with 557 more rows
…
(#fig:pivot-long)(ref:pivl)

surveys_spread %>% 
        pivot_longer(names_to = "genus", values_to = "mean_weight", -plot_id) 

## # A tibble: 240 x 3
##    plot_id genus           mean_weight
##      <dbl> <chr>                 <dbl>
##  1       1 Baiomys                7   
##  2       1 Chaetodipus           22.2 
##  3       1 Dipodomys             60.2 
##  4       1 Neotoma              156.  
##  5       1 Onychomys             27.7 
##  6       1 Perognathus            9.62
##  7       1 Peromyscus            22.2 
##  8       1 Reithrodontomys       11.4 
##  9       1 Sigmodon              NA   
## 10       1 Spermophilus          NA   
## # ... with 230 more rows
…
(#fig:pivot-wider)(ref:pivw)

surveys_gw %>% 
        pivot_wider(names_from = genus, values_from = mean_weight) 

## # A tibble: 24 x 11
##    plot_id Baiomys Chaetodipus Dipodomys Neotoma Onychomys Perognathus
##      <dbl>   <dbl>       <dbl>     <dbl>   <dbl>     <dbl>       <dbl>
##  1       1    7           22.2      60.2    156.      27.7        9.62
##  2       2    6           25.1      55.7    169.      26.9        6.95
##  3       3    8.61        24.6      52.0    158.      26.0        7.51
##  4       5    7.75        18.0      51.1    190.      27.0        8.66
##  5      18    9.5         26.8      61.4    149.      26.6        8.62
##  6      19    9.53        26.4      43.3    120       23.8        8.09
##  7      20    6           25.1      65.9    155.      25.2        8.14
##  8      21    6.67        28.2      42.7    138.      24.6        9.19
##  9       4   NA           23.0      57.5    164.      28.1        7.82
## 10       6   NA           24.9      58.6    180.      25.9        7.81
## # ... with 14 more rows, and 4 more variables: Peromyscus <dbl>,
## #   Reithrodontomys <dbl>, Sigmodon <dbl>, Spermophilus <dbl>
…
