2 Data wrangling I | Coding togetheR
…
Figure 2.3: dplyr::filter()

# Filter observations that only occurred from 1985 onwards
 filter(surveys, year >= 1985)

## # A tibble: 25,290 x 13
##    record_id month   day  year plot_id species_id sex   hindfoot_length
##        <dbl> <dbl> <dbl> <dbl>   <dbl> <chr>      <chr>           <dbl>
##  1     10606     7    24  1985       2 NL         F                  30
##  2     10617     7    24  1985       2 NL         M                  32
##  3     10627     7    24  1985       2 NL         F                  32
##  4     10720     8    20  1985       2 NL         F                  31
##  5     10923    10    13  1985       2 NL         F                  31
##  6     10949    10    13  1985       2 NL         F                  33
##  7     11215    12     8  1985       2 NL         F                  32
##  8     11329     3     9  1986       2 NL         M                  34
##  9     11496     5    11  1986       2 NL         F                  31
## 10     11498     5    11  1986       2 NL         F                  31
## # ... with 25,280 more rows, and 5 more variables: weight <dbl>,
## #   genus <chr>, species <chr>, taxa <chr>, plot_type <chr>
…
Figure 2.4: dplyr::arrange()

Use arrange to find the shortest hindfoot

surveys %>% arrange(hindfoot_length)

## # A tibble: 34,786 x 13
##    record_id month   day  year plot_id species_id sex   hindfoot_length
##        <dbl> <dbl> <dbl> <dbl>   <dbl> <chr>      <chr>           <dbl>
##  1     31400     9    30  2000      19 PB         M                   2
##  2     10067     3    16  1985      19 RM         M                   6
##  3     19567     1     8  1992      19 BA         M                   6
##  4     19015     9     9  1991      19 BA         F                   7
##  5     21036     8    19  1993      21 PF         F                   7
##  6     31457     9    31  2000       6 RM         M                   8
##  7     19191    10    11  1991      13 PF         F                   8
##  8      5801     4    29  1982       7 RM         <NA>                8
##  9     33647     3    14  2002       3 PF         M                   9
## 10     20562    12    22  1992       5 RM         F                   9
## # ... with 34,776 more rows, and 5 more variables: weight <dbl>,
## #   genus <chr>, species <chr>, taxa <chr>, plot_type <chr>

Find the Cactus Mouse, (species_id == "PE") with the longest hindfoot:

Hint Use the desc() function to arrange from biggest to smallest.

surveys %>% 
        filter(species_id == "PE") %>% 
        arrange(desc(hindfoot_length))

## # A tibble: 1,299 x 13
##    record_id month   day  year plot_id species_id sex   hindfoot_length
##        <dbl> <dbl> <dbl> <dbl>   <dbl> <chr>      <chr>           <dbl>
##  1      1202     9     3  1978       7 PE         F                  30
##  2       517     1     8  1978       2 PE         M                  26
##  3     32443     8    25  2001      23 PE         F                  24
##  4      5080    12    30  1981      15 PE         F                  23
##  5      5090    12    30  1981      15 PE         F                  23
##  6     33700     3    14  2002       9 PE         F                  23
##  7       604     2    18  1978       2 PE         M                  22
##  8     12459     3     2  1987       2 PE         F                  22
##  9     13992     1    24  1988       2 PE         M                  22
## 10     14516     5    15  1988       2 PE         F                  22
## # ... with 1,289 more rows, and 5 more variables: weight <dbl>,
## #   genus <chr>, species <chr>, taxa <chr>, plot_type <chr>
…
Figure 2.5: dplyr::select()

# Select the year and plot type columns
surveys %>% select(year,plot_type)

## # A tibble: 34,786 x 2
##     year plot_type
##    <dbl> <chr>    
##  1  1977 Control  
##  2  1977 Control  
##  3  1977 Control  
##  4  1977 Control  
##  5  1977 Control  
##  6  1977 Control  
##  7  1977 Control  
##  8  1978 Control  
##  9  1978 Control  
## 10  1978 Control  
## # ... with 34,776 more rows
…
# Check the output using a summary pipe, we should have 8 species of 2 types
surveys_mutated %>% group_by(species_id,rodent_type) %>% summarise()

## # A tibble: 42 x 2
## # Groups:   species_id [42]
##    species_id rodent_type 
##    <chr>      <chr>       
##  1 AB         Other       
##  2 AH         Other       
##  3 AS         Other       
##  4 BA         Other       
##  5 CB         Other       
##  6 CM         Other       
##  7 CQ         Other       
##  8 CS         Other       
##  9 CV         Other       
## 10 DM         Kangaroo Rat
## # ... with 32 more rows
…
