3 Data wrangling II | Coding togetheR
…
Figure 3.1: tidyr::pivot_longer

surveys_spread %>% 
        pivot_longer(names_to = "genus", values_to = "mean_weight", -plot_id) 

## # A tibble: 240 x 3
##    plot_id genus           mean_weight
##      <dbl> <chr>                 <dbl>
##  1       1 Baiomys                7   
##  2       1 Chaetodipus           22.2 
##  3       1 Dipodomys             60.2 
##  4       1 Neotoma              156.  
##  5       1 Onychomys             27.7 
##  6       1 Perognathus            9.62
##  7       1 Peromyscus            22.2 
##  8       1 Reithrodontomys       11.4 
##  9       1 Sigmodon              NA   
## 10       1 Spermophilus          NA   
## # ... with 230 more rows
…
Figure 3.2: tidyr::pivot_wider

surveys_gw %>% 
        pivot_wider(names_from = genus, values_from = mean_weight) 

## # A tibble: 24 x 11
##    plot_id Baiomys Chaetodipus Dipodomys Neotoma Onychomys Perognathus
##      <dbl>   <dbl>       <dbl>     <dbl>   <dbl>     <dbl>       <dbl>
##  1       1    7           22.2      60.2    156.      27.7        9.62
##  2       2    6           25.1      55.7    169.      26.9        6.95
##  3       3    8.61        24.6      52.0    158.      26.0        7.51
##  4       5    7.75        18.0      51.1    190.      27.0        8.66
##  5      18    9.5         26.8      61.4    149.      26.6        8.62
##  6      19    9.53        26.4      43.3    120       23.8        8.09
##  7      20    6           25.1      65.9    155.      25.2        8.14
##  8      21    6.67        28.2      42.7    138.      24.6        9.19
##  9       4   NA           23.0      57.5    164.      28.1        7.82
## 10       6   NA           24.9      58.6    180.      25.9        7.81
## # ... with 14 more rows, and 4 more variables: Peromyscus <dbl>,
## #   Reithrodontomys <dbl>, Sigmodon <dbl>, Spermophilus <dbl>
…
