5 Extras | Coding togetheR
…
In steps:

Pipe the surveys table to the filter function.

Pass arguments to the filter function to filter for observations equal to the control plot type or
observations equal to the long-term kangaroo rat exclosure plot type.

In R code this becomes:

surveys %>% 
        filter(plot_type == "Control" | 
        plot_type == "Long-term Krat Exclosure")

## # A tibble: 20,729 x 13
##    record_id month   day  year plot_id species_id sex   hindfoot_length weight
##        <dbl> <dbl> <dbl> <dbl>   <dbl> <chr>      <chr>           <dbl>  <dbl>
##  1         1     7    16  1977       2 NL         M                  32     NA
##  2        72     8    19  1977       2 NL         M                  31     NA
##  3       224     9    13  1977       2 NL         <NA>               NA     NA
##  4       266    10    16  1977       2 NL         <NA>               NA     NA
##  5       349    11    12  1977       2 NL         <NA>               NA     NA
##  6       363    11    12  1977       2 NL         <NA>               NA     NA
##  7       435    12    10  1977       2 NL         <NA>               NA     NA
##  8       506     1     8  1978       2 NL         <NA>               NA     NA
##  9       588     2    18  1978       2 NL         M                  NA    218
## 10       661     3    11  1978       2 NL         <NA>               NA     NA
## # … with 20,719 more rows, and 4 more variables: genus <chr>, species <chr>,
## #   taxa <chr>, plot_type <chr>
…
